<?xml version="1.0" encoding="UTF-8" standalone="no"?>
<svg
   xmlns:dc="http://purl.org/dc/elements/1.1/"
   xmlns:cc="http://creativecommons.org/ns#"
   xmlns:rdf="http://www.w3.org/1999/02/22-rdf-syntax-ns#"
   xmlns:svg="http://www.w3.org/2000/svg"
   xmlns="http://www.w3.org/2000/svg"
   viewBox="0 0 1333.3333 1066.6667"
   height="1066.6667"
   width="1333.3333"
   xml:space="preserve"
   id="svg2"
   version="1.1"><metadata
     id="metadata8"><rdf:RDF><cc:Work
         rdf:about=""><dc:format>image/svg+xml</dc:format><dc:type
           rdf:resource="http://purl.org/dc/dcmitype/StillImage" /></cc:Work></rdf:RDF></metadata><defs
     id="defs6" /><g
     transform="matrix(1.3333333,0,0,-1.3333333,0,1066.6667)"
     id="g10"><g
       transform="scale(0.1)"
       id="g12"><path
         id="path14"
         style="fill:#505256;fill-opacity:1;fill-rule:nonzero;stroke:none"
         d="m 3387.68,1815.97 c -44.05,0 -74.41,32.3 -74.41,76.05 h 35.25 c 0,-23.49 13.71,-43.75 39.16,-43.75 24.15,0 38.87,17.33 38.87,40.81 0,25.79 -18.61,31.67 -38.87,39.48 -37.54,14.41 -67.53,25.48 -67.53,72.48 0,37.58 30.66,65.63 67.53,65.63 40.18,0 69.24,-26.47 69.24,-67.26 h -35.27 c 0,20.89 -13.06,34.94 -33.97,34.94 -17.6,0 -32.3,-15.35 -32.3,-32.96 0,-51.25 106.42,-20.55 106.42,-112.31 0,-43.4 -31.02,-73.11 -74.12,-73.11" /><path
         id="path16"
         style="fill:#505256;fill-opacity:1;fill-rule:nonzero;stroke:none"
         d="m 3871.3,1820.54 v 241.58 h 35.29 v -209.28 h 83.87 v -32.3 H 3871.3" /><path
         id="path18"
         style="fill:#505256;fill-opacity:1;fill-rule:nonzero;stroke:none"
         d="m 4525.71,2034.35 c -37.55,0 -67.26,-20.26 -81.93,-54.52 -5.25,-12.07 -8.53,-25.12 -8.53,-38.51 0,-13.4 3.28,-26.79 8.53,-39.17 14.99,-33.94 44.7,-53.88 81.93,-53.88 39.81,0 70.47,22.85 84.2,59.76 3.92,10.11 6.21,21.22 6.21,32.3 0,51.25 -37.89,94.02 -90.41,94.02 z m 0,-218.38 c -69.23,0 -125.71,56.14 -125.71,125.35 0,69.87 56.16,125.35 125.71,125.35 70.47,0 125.67,-55.82 125.67,-126.01 0,-68.85 -56.8,-124.69 -125.67,-124.69" /><path
         id="path20"
         style="fill:#505256;fill-opacity:1;fill-rule:nonzero;stroke:none"
         d="m 5237.18,1827.72 c -16.34,-7.5 -34.59,-11.75 -52.54,-11.75 -69.23,0 -123.75,55.84 -123.75,124.69 0,69.2 53.57,126.01 123.42,126.01 45.38,0 86.81,-25.46 108.38,-65.28 h -41.15 c -17.96,20.24 -38.19,32.96 -65.95,32.96 -50.91,0 -89.43,-44.07 -89.43,-93.69 0,-48.95 39.84,-92.39 89.77,-92.39 38.53,0 69.55,24.47 83.26,60.07 h -112.66 v 32.32 h 152.81 c -0.65,-49.63 -26.44,-92.05 -72.16,-112.94" /><path
         id="path22"
         style="fill:#505256;fill-opacity:1;fill-rule:nonzero;stroke:none"
         d="m 5826.92,2016.41 h -0.69 l -30.97,-92.42 h 62.35 z m 69.55,-195.87 -26.78,71.17 h -86.82 l -26.78,-71.17 h -37.21 l 91.72,241.58 h 31.7 l 91.7,-241.58 h -37.53" /><path
         id="path24"
         style="fill:#505256;fill-opacity:1;fill-rule:nonzero;stroke:none"
         d="m 6498.87,1820.54 -119.43,186.71 h -0.67 v -186.71 h -35.25 v 241.58 h 38.51 l 117.51,-183.84 h 0.68 v 183.84 h 35.25 v -241.58 h -36.6" /><path
         id="path26"
         style="fill:#676a6e;fill-opacity:1;fill-rule:nonzero;stroke:none"
         d="m 2568.75,2727.27 2.7,2.37 c 55.93,-1.8 88.17,-2.71 96.74,-2.71 7.65,0 40.02,0.91 97.07,2.71 l 2.7,-2.37 v -16.9 l -2.7,-2.38 c -15.56,-0.45 -27.57,-1.13 -36.02,-2.02 -8.47,-0.9 -14.6,-2.6 -18.43,-5.08 -3.84,-2.48 -6.38,-8.28 -7.62,-17.41 -1.23,-9.13 -1.86,-21.83 -1.86,-38.06 l -0.67,-77.79 v -149.49 c 0,-37.42 0.22,-63.58 0.67,-78.46 l 1.7,-58.51 h 68.99 c 55.01,0 89.33,0.68 102.99,2.03 13.64,1.35 26.76,4.62 39.4,9.8 2.48,5.64 6.03,18.61 10.65,38.9 4.62,20.3 7.04,32.02 7.28,35.18 l 3.03,2.7 h 16.58 l 2.37,-2.7 c -1.81,-9.02 -3.68,-26.5 -5.58,-52.42 -1.92,-25.93 -2.87,-46.91 -2.87,-62.92 l -2.72,-2.7 c -42.84,1.35 -99.1,2.02 -168.76,2.02 l -98.76,0.68 c -22.56,0 -45.55,-0.89 -68.99,-2.7 l -2.71,2.7 v 11.17 l 2.71,3.38 c 13.97,7.21 21.64,11.61 22.99,13.19 1.35,1.58 2.76,16.11 4.23,43.63 1.47,27.5 2.2,60.65 2.2,99.43 v 145.09 l -0.68,65.96 c -0.22,25.7 -0.85,42.27 -1.86,49.72 -1.02,7.43 -2.59,12.39 -4.74,14.88 -2.14,2.48 -6.25,4.51 -12.34,6.08 -6.08,1.58 -21.09,2.82 -44.99,3.72 l -2.7,2.38 v 16.9" /><path
         id="path28"
         style="fill:#676a6e;fill-opacity:1;fill-rule:nonzero;stroke:none"
         d="m 3065.93,2507.1 c 0,-27.52 4.44,-57.11 13.35,-88.79 8.91,-31.68 22.21,-58.85 39.92,-81.51 17.69,-22.66 38.1,-39.51 61.22,-50.55 23.1,-11.05 49.42,-16.58 78.97,-16.58 34.94,0 66.06,8 93.34,24.01 27.28,16.01 48.03,40.87 62.23,74.58 14.21,33.71 21.31,71.53 21.31,113.47 0,45.54 -8.12,86.7 -24.36,123.45 -16.23,36.75 -39.34,63.46 -69.33,80.15 -29.98,16.69 -63.24,25.04 -99.77,25.04 -54.78,0 -97.97,-17.15 -129.54,-51.42 -31.57,-34.28 -47.34,-84.89 -47.34,-151.85 z m -70.36,-22.33 c 0,33.83 4.85,65.39 14.55,94.71 9.69,29.3 26.21,56.42 49.55,81.34 23.34,24.9 51.46,44.18 84.39,57.83 32.92,13.64 70.11,20.46 111.6,20.46 76.89,0 138.1,-20.92 183.66,-62.74 45.54,-41.83 68.31,-98.93 68.31,-171.3 0,-50.96 -11.16,-96.74 -33.47,-137.31 -22.33,-40.59 -54.29,-72.17 -95.89,-94.71 -41.6,-22.54 -88.34,-33.82 -140.19,-33.82 -36.76,0 -70.58,6.15 -101.47,18.43 -30.89,12.29 -57.22,30.61 -78.97,54.96 -21.76,24.35 -37.54,52.54 -47.35,84.56 -9.8,32.02 -14.72,61.22 -14.72,87.59" /><path
         id="path30"
         style="fill:#676a6e;fill-opacity:1;fill-rule:nonzero;stroke:none"
         d="m 3538.08,2727.27 2.71,2.37 c 41.25,-1.8 73.39,-2.71 96.38,-2.71 25.49,0 59.87,0.8 103.16,2.37 16,0.46 27.62,0.68 34.83,0.68 57.04,0 95.72,-10.37 116.02,-31.12 20.29,-20.74 30.44,-45.32 30.44,-73.73 0,-18.94 -4.97,-37.54 -14.88,-55.8 -9.94,-18.26 -24.58,-33.88 -43.97,-46.85 -19.4,-12.96 -46.11,-22.72 -80.16,-29.25 6.31,-8.79 17.69,-24.02 34.16,-45.66 l 48.02,-63.58 c 15.56,-20.98 32.25,-43.12 50.06,-66.46 17.81,-23.33 29.3,-36.53 34.49,-39.58 5.2,-3.04 9.65,-4.9 13.37,-5.58 3.71,-0.67 9.64,-1.01 17.76,-1.01 l 2.7,-2.7 v -15.9 l -3.05,-3.05 c -10.82,1.35 -23.68,2.03 -38.56,2.03 -16,0 -33.47,-0.68 -52.41,-2.03 -15.57,18.95 -40.03,51.75 -73.4,98.42 -38.78,54.12 -78.46,104.28 -119.05,150.51 l 3.39,10.49 c 11.72,-0.68 20.85,-1.02 27.39,-1.02 39,0 69.55,9.36 91.65,28.08 22.09,18.71 33.15,44.64 33.15,77.78 0,29.77 -9.93,52.25 -29.77,67.48 -19.84,15.21 -46.67,22.82 -80.49,22.82 -23.67,0 -46,-3.27 -66.96,-9.81 -3.38,-4.96 -5.08,-47.23 -5.08,-126.83 v -156.59 l 0.33,-65.94 c 0.23,-25.49 0.91,-41.95 2.04,-49.39 1.12,-7.44 2.75,-12.4 4.91,-14.88 2.13,-2.49 6.25,-4.56 12.34,-6.26 6.09,-1.68 21.08,-2.99 44.98,-3.88 l 2.71,-2.03 v -16.92 l -2.71,-2.7 c -1.13,0 -20.97,0.67 -59.52,2.02 -16.02,0.46 -28.53,0.68 -37.55,0.68 -6.99,0 -39.23,-0.89 -96.72,-2.7 l -2.71,2.7 v 16.92 l 2.71,2.03 c 20.96,0.89 34.94,2.03 41.93,3.38 6.99,1.35 11.67,3.09 14.03,5.23 2.38,2.15 4.29,6.71 5.76,13.7 1.47,6.99 2.3,22.55 2.54,46.68 l 0.33,71.36 v 156.59 l -0.68,65.96 c -0.22,25.7 -0.84,42.27 -1.85,49.72 -1.02,7.43 -2.6,12.39 -4.73,14.88 -2.16,2.48 -6.27,4.51 -12.35,6.08 -6.09,1.58 -21.08,2.82 -44.98,3.72 l -2.71,2.38 v 16.9" /><path
         id="path32"
         style="fill:#676a6e;fill-opacity:1;fill-rule:nonzero;stroke:none"
         d="m 4011.24,2727.27 2.7,2.37 c 77.34,-1.36 126.83,-2.03 148.49,-2.03 73.95,0 139.78,0.67 197.51,2.03 l 1.69,-2.37 c -5.63,-21.65 -9.81,-55.58 -12.51,-101.8 l -2.03,-2.71 h -16.58 l -3.05,2.71 c 0.23,2.03 0.35,3.84 0.35,5.41 0,19.17 -1.47,37.43 -4.4,54.8 -14.21,6.3 -33.88,10.42 -59.02,12.34 -25.14,1.91 -44.02,2.87 -56.64,2.87 -17.82,0 -40.59,-1.24 -68.33,-3.72 l -1.35,-54.11 -1.02,-61.9 -1.01,-68.65 c 24.35,-1.36 46.78,-2.03 67.31,-2.03 20.74,0 38.1,0.67 52.08,2.03 13.98,1.35 22.15,2.76 24.51,4.22 2.38,1.46 4.18,4.29 5.42,8.46 1.24,4.17 2.31,11.56 3.21,22.15 l 1.35,20.97 2.72,2.7 h 15.55 l 2.71,-2.7 c -0.46,-24.58 -1.02,-49.27 -1.7,-74.07 l 1.7,-76.1 -2.71,-2.7 h -15.55 l -2.72,2.7 -2.36,20.3 c -2.04,15.78 -3.5,25.19 -4.4,28.24 -0.9,3.05 -2.99,5.69 -6.25,7.95 -3.27,2.25 -11.68,4.06 -25.21,5.41 -13.53,1.35 -32.12,2.03 -55.8,2.03 -13.08,0 -33.03,-0.57 -59.86,-1.7 -1.13,-18.94 -1.69,-50.51 -1.69,-94.7 0,-47.34 0.56,-82.18 1.69,-104.5 h 62.23 c 54.8,0 89.06,0.68 102.82,2.03 13.75,1.35 26.83,4.62 39.23,9.8 2.03,5.19 5.35,17.2 9.98,36.02 4.61,18.83 7.27,30.61 7.95,35.35 l 3.38,2.37 h 16.23 l 2.7,-2.37 c -2.02,-9.7 -3.99,-26.61 -5.91,-50.73 -1.92,-24.13 -2.87,-44.76 -2.87,-61.9 l -2.37,-2.7 c -43.07,1.35 -99.43,2.02 -169.11,2.02 l -91.99,0.68 c -21.43,0 -43.75,-0.89 -66.97,-2.7 l -2.71,2.7 v 11.17 l 2.71,3.38 c 13.3,6.76 20.91,10.99 22.83,12.68 1.91,1.7 3.5,21.42 4.74,59.18 1.23,37.77 1.85,66.58 1.85,86.42 v 124.13 l -0.34,76.77 c 0,16.68 -0.22,30.27 -0.67,40.75 -0.45,10.49 -1.25,17.98 -2.37,22.49 -1.13,4.51 -2.43,7.67 -3.89,9.48 -1.47,1.8 -3.84,3.33 -7.1,4.57 -3.27,1.23 -8.85,2.31 -16.74,3.21 l -25.71,2.02 -2.7,2.38 v 16.9" /><path
         id="path34"
         style="fill:#676a6e;fill-opacity:1;fill-rule:nonzero;stroke:none"
         d="m 5045.84,2728.63 3.03,-2.71 v -16.57 l -2.7,-2.37 c -24.8,-0.68 -40.19,-1.91 -46.17,-3.72 -5.97,-1.81 -10.2,-4.79 -12.68,-8.97 -2.48,-4.17 -3.89,-12.34 -4.23,-24.51 -0.33,-12.18 -0.96,-46.57 -1.86,-103.16 v -155.91 c 0,-22.56 0.35,-48.03 1.02,-76.44 0.68,-28.41 2.08,-44.93 4.23,-49.55 2.14,-4.62 6.02,-8 11.66,-10.15 5.64,-2.14 21.66,-3.55 48.03,-4.23 l 2.7,-2.37 v -16.56 l -3.03,-2.71 c -36.76,2.03 -68.78,3.04 -96.05,3.04 -18.5,0 -49.96,-1.01 -94.37,-3.04 l -3.05,2.71 v 16.23 l 2.71,2.7 c 24.81,0.68 40.19,1.92 46.17,3.73 5.97,1.8 10.19,4.79 12.68,8.96 2.48,4.17 3.94,12.46 4.4,24.86 0.45,12.39 1.02,46.67 1.68,102.82 v 248.24 l -116.68,-244.19 c -29.31,-61.1 -54.9,-118.6 -76.77,-172.48 h -13.19 c -12.63,29.08 -23,52.31 -31.12,69.66 l -161.66,335.85 v -236.41 c 0,-22.1 0.27,-47.52 0.85,-76.26 0.55,-28.76 1.96,-45.39 4.23,-49.89 2.24,-4.52 6.19,-7.9 11.83,-10.14 5.63,-2.27 21.64,-3.62 48.03,-4.07 l 2.7,-2.7 v -16.24 l -3.05,-3.04 -21.64,1.02 c -22.32,1.13 -41.49,1.68 -57.5,1.68 -7.21,0 -34.16,-0.89 -80.83,-2.7 l -2.71,2.7 v 16.23 l 2.71,3.05 c 24.81,0.45 40.13,1.58 45.99,3.38 5.86,1.8 10.09,4.85 12.69,9.14 2.59,4.28 4.06,12.29 4.4,24.01 0.34,11.72 0.84,46.33 1.52,103.83 v 154.9 c 0,20.52 -0.29,45.49 -0.85,74.91 -0.57,29.43 -1.92,46.45 -4.05,51.08 -2.15,4.61 -6.04,8.05 -11.68,10.32 -5.63,2.24 -21.64,3.6 -48.02,4.05 l -2.71,2.71 v 16.23 l 3.05,3.05 c 15.56,-1.14 36.52,-1.7 62.91,-1.7 24.79,0 46.45,0.56 64.93,1.7 18.95,-43.75 37.1,-83.32 54.45,-118.71 l 128.2,-263.14 115.66,241.15 c 31.33,65.16 52.42,112.06 63.25,140.7 21.64,-1.14 42.95,-1.7 63.91,-1.7 18.95,0 41.27,0.56 66.98,1.7" /><path
         id="path36"
         style="fill:#676a6e;fill-opacity:1;fill-rule:nonzero;stroke:none"
         d="m 5257.89,2729.64 42.28,-1.36 c 27.74,-0.9 45.87,-1.35 54.45,-1.35 7.67,0 40.01,0.91 97.06,2.71 l 2.71,-2.37 v -16.9 l -2.71,-2.38 c -15.55,-0.45 -27.55,-1.13 -36.02,-2.02 -8.45,-0.9 -14.6,-2.6 -18.43,-5.08 -3.83,-2.48 -6.37,-8.28 -7.61,-17.41 -1.24,-9.13 -1.86,-21.83 -1.86,-38.06 l -0.67,-77.79 v -156.59 l 0.33,-65.94 c 0.23,-25.49 0.91,-41.95 2.04,-49.39 1.12,-7.44 2.75,-12.4 4.9,-14.88 2.14,-2.49 6.26,-4.56 12.34,-6.26 6.1,-1.68 21.09,-2.99 44.98,-3.88 l 2.71,-2.03 v -16.92 l -2.71,-2.7 c -1.12,0 -20.97,0.67 -59.52,2.02 -16.01,0.46 -28.52,0.68 -37.54,0.68 -6.99,0 -39.24,-0.89 -96.73,-2.7 l -2.71,2.7 v 16.92 l 2.71,2.03 c 20.97,0.89 34.94,2.03 41.94,3.38 6.99,1.35 11.67,3.09 14.03,5.23 2.37,2.15 4.29,6.71 5.75,13.7 1.46,6.99 2.31,22.55 2.53,46.68 l 0.35,71.36 v 156.59 l -0.68,65.96 c -0.22,25.7 -0.85,42.27 -1.85,49.72 -1.02,7.43 -2.6,12.39 -4.75,14.88 -2.14,2.48 -6.25,4.51 -12.34,6.08 -6.09,1.58 -21.09,2.82 -44.98,3.72 l -2.71,2.38 v 16.9 l 2.71,2.37" /><path
         id="path38"
         style="fill:#676a6e;fill-opacity:1;fill-rule:nonzero;stroke:none"
         d="m 5491.26,2729.64 c 56.81,-1.8 93,-2.71 108.56,-2.71 21.19,0 44.98,0.56 71.37,1.7 27.95,0.89 45.19,1.35 51.73,1.35 31.57,0 57.67,-3.27 78.31,-9.81 20.63,-6.54 37.71,-18.49 51.24,-35.86 13.52,-17.35 20.29,-38.33 20.29,-62.9 0,-20.29 -4.74,-39.9 -14.21,-58.85 -9.47,-18.94 -22.66,-35.06 -39.57,-48.36 -16.91,-13.31 -34.05,-22.83 -51.41,-28.58 -17.36,-5.75 -35.39,-8.63 -54.11,-8.63 -13.99,0 -29.54,1.58 -46.67,4.74 l -5.75,20.64 3.03,3.38 c 16.92,-3.84 30.67,-5.75 41.27,-5.75 29.54,0 53.27,9.74 71.2,29.24 17.93,19.51 26.89,44.49 26.89,74.93 0,30.65 -9.31,55.12 -27.91,73.39 -18.6,18.26 -46.72,27.39 -84.39,27.39 -20.51,0 -43.06,-3.84 -67.63,-11.49 -2.03,-17.37 -3.05,-59.31 -3.05,-125.83 v -156.59 l 0.34,-65.94 c 0.22,-25.49 0.9,-41.95 2.03,-49.39 1.13,-7.44 2.76,-12.4 4.9,-14.88 2.14,-2.49 6.26,-4.56 12.34,-6.26 6.1,-1.68 21.09,-2.99 44.99,-3.88 l 2.7,-2.03 v -16.92 l -2.7,-2.7 c -57.5,1.81 -89.86,2.7 -97.07,2.7 -7.67,0 -39.91,-0.89 -96.72,-2.7 l -2.72,2.7 v 16.92 l 2.72,2.03 c 20.96,0.89 34.94,2.03 41.93,3.38 6.99,1.35 11.67,3.09 14.04,5.23 2.36,2.15 4.28,6.71 5.74,13.7 1.47,6.99 2.32,22.55 2.54,46.68 l 0.34,71.36 v 156.59 l -0.68,65.96 c -0.22,25.7 -0.84,42.27 -1.85,49.72 -1.02,7.43 -2.6,12.39 -4.74,14.88 -2.15,2.48 -6.26,4.51 -12.35,6.08 -6.08,1.58 -21.09,2.82 -44.97,3.72 l -2.72,2.38 v 16.9 l 2.72,2.37" /><path
         id="path40"
         style="fill:#676a6e;fill-opacity:1;fill-rule:nonzero;stroke:none"
         d="m 5916.39,2368.09 2.7,2.7 h 16.58 l 2.7,-2.7 c 1.13,-28.87 2.65,-46.5 4.57,-52.93 1.91,-6.43 8,-13.2 18.26,-20.29 10.26,-7.1 23.9,-12.91 40.92,-17.42 17.02,-4.52 34.21,-6.76 51.58,-6.76 23.9,0 45.38,4.4 64.43,13.18 19.06,8.8 33.88,21.7 44.47,38.73 10.61,17.03 15.9,36.13 15.9,57.32 0,14.89 -2.53,27.85 -7.6,38.9 -5.08,11.04 -12.18,19.9 -21.31,26.55 -9.13,6.65 -19.57,11.61 -31.29,14.88 -11.72,3.27 -29.2,6.82 -52.42,10.66 -22.55,3.61 -40.19,6.88 -52.93,9.8 -12.74,2.94 -25.43,7.45 -38.05,13.53 -12.63,6.09 -23.17,13.81 -31.63,23.17 -8.45,9.36 -15.21,20.85 -20.29,34.49 -5.07,13.65 -7.6,28.25 -7.6,43.81 0,42.16 14.65,76.72 43.97,103.66 29.3,26.94 68.65,40.42 118.03,40.42 19.61,0 40.98,-2.43 64.09,-7.28 23.11,-4.84 44.14,-12.01 63.07,-21.47 l 2.38,-4.06 c -4.97,-20.75 -8.02,-50.28 -9.14,-88.61 l -3.04,-2.7 h -17.59 l -2.7,2.36 c -0.46,27.06 -1.14,44.08 -2.03,51.07 -0.91,6.99 -11.17,15.67 -30.78,26.04 -19.62,10.37 -40.92,15.56 -63.93,15.56 -19.16,0 -37.09,-3.84 -53.77,-11.49 -16.68,-7.67 -29.31,-19.74 -37.88,-36.19 -8.57,-16.47 -12.85,-33.27 -12.85,-50.4 0,-13.31 2.59,-25.08 7.78,-35.34 5.18,-10.27 11.89,-18.39 20.13,-24.36 8.22,-5.97 17.8,-10.42 28.74,-13.36 10.93,-2.93 30.94,-6.54 60.03,-10.82 39.91,-5.63 68.94,-12.45 87.09,-20.46 18.15,-8 32.7,-20.69 43.64,-38.05 10.92,-17.36 16.39,-38.33 16.39,-62.9 0,-48.03 -19.55,-88.06 -58.68,-120.08 -39.12,-32.01 -86.53,-48.02 -142.22,-48.02 -46.67,0 -87.59,8.34 -122.77,25.03 l -2.03,4.4 c 2.26,14.2 3.94,47.35 5.08,99.43" /><path
         id="path42"
         style="fill:#676a6e;fill-opacity:1;fill-rule:nonzero;stroke:none"
         d="m 6263.4,2727.27 2.7,2.37 c 55.93,-1.8 88.17,-2.71 96.74,-2.71 7.66,0 40.02,0.91 97.07,2.71 l 2.7,-2.37 v -16.9 l -2.7,-2.38 c -15.56,-0.45 -27.57,-1.13 -36.03,-2.02 -8.46,-0.9 -14.6,-2.6 -18.42,-5.08 -3.84,-2.48 -6.38,-8.28 -7.62,-17.41 -1.24,-9.13 -1.86,-21.83 -1.86,-38.06 l -0.67,-77.79 v -107.55 c 0,-35.39 0.73,-61.38 2.2,-77.96 1.46,-16.56 4.61,-30.55 9.47,-41.93 4.84,-11.39 12.22,-21.2 22.15,-29.43 9.91,-8.23 24.12,-14.93 42.61,-20.13 18.48,-5.19 39.46,-7.77 62.91,-7.77 24.8,0 47.97,3.43 69.5,10.32 21.53,6.88 37.94,16.84 49.21,29.93 11.28,13.07 18.66,30.27 22.15,51.58 3.49,21.31 5.25,50.9 5.25,88.77 v 104.17 c 0,17.59 -0.29,41.77 -0.85,72.55 -0.56,30.78 -1.92,48.48 -4.05,53.1 -2.16,4.62 -6.1,8.12 -11.85,10.49 -5.75,2.37 -21.7,3.77 -47.85,4.22 l -2.71,2.71 v 15.9 l 2.71,3.04 c 33.36,-1.8 60.09,-2.71 80.16,-2.71 17.13,0 43.73,0.91 79.81,2.71 l 3.05,-2.71 v -16.23 l -3.05,-2.71 c -21.2,-0.45 -35,-1.29 -41.42,-2.53 -6.43,-1.24 -10.94,-3.11 -13.53,-5.58 -2.6,-2.48 -4.52,-6.31 -5.75,-11.5 -1.25,-5.19 -2.09,-20.07 -2.55,-44.64 l -1,-76.11 v -102.82 c 0,-41.03 -1.59,-73.38 -4.75,-97.05 -3.16,-23.68 -10.2,-43.14 -21.13,-58.35 -10.94,-15.21 -23.91,-27.96 -38.9,-38.22 -14.99,-10.26 -34.21,-18.15 -57.66,-23.68 -23.46,-5.51 -47.8,-8.28 -73.05,-8.28 -31.58,0 -59.47,3.49 -83.71,10.48 -24.24,6.99 -43.35,16.24 -57.33,27.74 -13.99,11.5 -24.01,23.61 -30.1,36.36 -6.09,12.73 -10.04,27.73 -11.84,44.98 -1.81,17.25 -2.71,43.57 -2.71,78.97 v 129.87 l -0.67,65.96 c -0.22,25.7 -0.85,42.27 -1.86,49.72 -1.02,7.43 -2.59,12.39 -4.73,14.88 -2.15,2.48 -6.26,4.51 -12.35,6.08 -6.09,1.58 -21.09,2.82 -44.99,3.72 l -2.7,2.38 v 16.9" /><path
         id="path44"
         style="fill:#676a6e;fill-opacity:1;fill-rule:nonzero;stroke:none"
         d="m 7428.21,2728.63 3.04,-2.71 v -16.57 l -2.71,-2.37 c -24.8,-0.68 -40.19,-1.91 -46.16,-3.72 -5.97,-1.81 -10.2,-4.79 -12.68,-8.97 -2.49,-4.17 -3.9,-12.34 -4.23,-24.51 -0.34,-12.18 -0.96,-46.57 -1.87,-103.16 v -155.91 c 0,-22.56 0.35,-48.03 1.02,-76.44 0.68,-28.41 2.09,-44.93 4.23,-49.55 2.14,-4.62 6.03,-8 11.66,-10.15 5.64,-2.14 21.66,-3.55 48.03,-4.23 l 2.71,-2.37 v -16.56 l -3.04,-2.71 c -36.76,2.03 -68.78,3.04 -96.05,3.04 -18.5,0 -49.96,-1.01 -94.37,-3.04 l -3.05,2.71 v 16.23 l 2.71,2.7 c 24.81,0.68 40.19,1.92 46.17,3.73 5.97,1.8 10.19,4.79 12.68,8.96 2.48,4.17 3.94,12.46 4.4,24.86 0.45,12.39 1.02,46.67 1.69,102.82 v 248.24 l -116.68,-244.19 c -29.32,-61.1 -54.91,-118.6 -76.78,-172.48 h -13.18 c -12.64,29.08 -23.01,52.31 -31.12,69.66 l -161.67,335.85 v -236.41 c 0,-22.1 0.28,-47.52 0.85,-76.26 0.56,-28.76 1.96,-45.39 4.23,-49.89 2.24,-4.52 6.19,-7.9 11.83,-10.14 5.64,-2.27 21.64,-3.62 48.03,-4.07 l 2.7,-2.7 v -16.24 l -3.04,-3.04 -21.65,1.02 c -22.32,1.13 -41.49,1.68 -57.5,1.68 -7.21,0 -34.15,-0.89 -80.82,-2.7 l -2.72,2.7 v 16.23 l 2.72,3.05 c 24.8,0.45 40.12,1.58 45.99,3.38 5.86,1.8 10.09,4.85 12.69,9.14 2.59,4.28 4.05,12.29 4.4,24.01 0.33,11.72 0.83,46.33 1.51,103.83 v 154.9 c 0,20.52 -0.29,45.49 -0.84,74.91 -0.57,29.43 -1.93,46.45 -4.06,51.08 -2.15,4.61 -6.03,8.05 -11.67,10.32 -5.64,2.24 -21.65,3.6 -48.02,4.05 l -2.72,2.71 v 16.23 l 3.05,3.05 c 15.56,-1.14 36.53,-1.7 62.91,-1.7 24.8,0 46.45,0.56 64.93,1.7 18.95,-43.75 37.1,-83.32 54.45,-118.71 l 128.2,-263.14 115.66,241.15 c 31.34,65.16 52.42,112.06 63.25,140.7 21.64,-1.14 42.95,-1.7 63.92,-1.7 18.94,0 41.26,0.56 66.97,1.7" /><path
         id="path46"
         style="fill:#7fcb2d;fill-opacity:1;fill-rule:nonzero;stroke:none"
         d="m 5924.33,4300.83 c -1.38,8.56 -2.9,17.1 -4.55,25.61 l -0.42,2.08 c -1.64,8.3 -3.39,16.58 -5.27,24.83 l -0.23,1.01 c -16.36,71.13 -42.1,140.17 -76.81,205.07 -6.6,12.35 -13.53,24.54 -20.78,36.57 l -0.19,0.32 c -3.34,5.55 -6.77,11.05 -10.25,16.53 l -1.19,1.89 c -3.08,4.8 -6.23,9.56 -9.41,14.31 -0.84,1.25 -1.66,2.52 -2.51,3.77 -2.61,3.86 -5.29,7.67 -7.97,11.49 -1.48,2.09 -2.92,4.2 -4.41,6.28 -1.8,2.51 -3.65,4.97 -5.48,7.46 -2.45,3.33 -4.86,6.67 -7.37,9.97 l -0.5,0.65 c -24.42,32.13 -51.47,62.78 -81.1,91.65 -9.08,-34.44 -29.05,-69.33 -56.47,-104.47 -11.59,-14.86 -24.49,-29.76 -38.5,-44.7 -104.13,-111.04 -267.68,-223.87 -384.75,-332.94 -11.54,-10.76 -22.56,-21.47 -33.09,-32.15 l -0.02,0.01 c 0,0 -194.95,-164.12 -142.22,-421.94 7.81,-44.06 19.84,-69.88 19.84,-69.88 1.75,22.81 4.4,44.08 7.82,64.12 17.23,76.97 72,209.66 245.35,321.35 68.22,40.09 147.63,80.07 235.37,134.28 72.31,44.68 130.5,92.07 176.95,137.56 76.89,-193.12 60.72,-419.55 -63.34,-605.57 -8.49,-12.72 -17.37,-25.02 -26.58,-36.96 -13,-16.87 -26.76,-32.87 -41.08,-48.14 l -2.41,-2.59 c -3.84,-4.06 -7.75,-8.02 -11.68,-11.96 -1.2,-1.21 -2.4,-2.42 -3.6,-3.61 -3.75,-3.7 -7.55,-7.34 -11.38,-10.93 -1.49,-1.41 -2.99,-2.81 -4.5,-4.2 -3.65,-3.36 -7.33,-6.69 -11.04,-9.97 -1.84,-1.61 -3.69,-3.2 -5.54,-4.79 -2.42,-2.09 -4.81,-4.24 -7.25,-6.28 -184,-193.34 -455.84,-269.82 -619.72,-299.49 l 0.92,-0.23 c 4.9,-1.22 9.8,-2.38 14.72,-3.51 1.32,-0.3 2.65,-0.61 3.97,-0.91 5.65,-1.26 11.3,-2.46 16.97,-3.6 l 1.86,-0.38 c 6.26,-1.24 12.52,-2.42 18.8,-3.52 l 0.22,-0.04 c 52.33,-9.14 105.28,-13.18 158.07,-12.19 l 0.43,0.01 c 6.21,0.12 12.42,0.32 18.62,0.57 l 1.87,0.08 c 5.69,0.25 11.37,0.57 17.04,0.94 1.19,0.07 2.37,0.15 3.56,0.23 5.08,0.35 10.16,0.76 15.24,1.2 1.8,0.16 3.6,0.32 5.4,0.49 4.44,0.41 8.88,0.88 13.32,1.37 2.44,0.27 4.89,0.54 7.33,0.83 3.77,0.45 7.54,0.94 11.31,1.44 3.1,0.41 6.2,0.84 9.29,1.29 3.1,0.45 6.19,0.92 9.28,1.4 3.75,0.59 7.5,1.19 11.25,1.83 2.42,0.42 4.84,0.85 7.26,1.28 4.4,0.79 8.79,1.61 13.17,2.47 1.77,0.35 3.53,0.7 5.3,1.06 5,1.02 9.99,2.07 14.97,3.18 1.16,0.26 2.31,0.52 3.47,0.78 5.55,1.26 11.08,2.57 16.6,3.94 l 1.82,0.46 c 6.03,1.51 12.03,3.08 18.02,4.73 l 0.42,0.12 c 50.9,14.03 100.52,32.93 148.11,56.55 l 0.2,0.1 c 5.71,2.83 11.38,5.74 17.03,8.71 l 1.67,0.89 c 5.11,2.7 10.19,5.46 15.25,8.27 1.18,0.66 2.37,1.33 3.55,2 4.39,2.47 8.77,4.98 13.12,7.54 1.89,1.11 3.77,2.24 5.65,3.36 3.61,2.16 7.21,4.34 10.79,6.56 2.67,1.65 5.33,3.34 7.98,5.03 2.74,1.74 5.48,3.48 8.2,5.25 3.53,2.31 7.04,4.65 10.53,7.01 1.82,1.22 3.64,2.44 5.46,3.68 4.42,3.04 8.82,6.13 13.2,9.27 l 2.57,1.83 c 7.41,5.34 14.71,10.85 21.97,16.46 3.61,2.8 7.18,5.69 10.76,8.56 3.54,2.82 7.07,5.65 10.56,8.55 4.2,3.47 8.36,7.01 12.49,10.58 2.72,2.34 5.42,4.7 8.1,7.08 4.5,3.98 8.98,8 13.41,12.1 2.05,1.89 4.07,3.83 6.1,5.74 4.87,4.6 9.73,9.21 14.5,13.95 l 1.36,1.37 c 11.77,11.73 23.27,23.87 34.46,36.44 l 0.48,0.53 c 3.9,4.39 7.7,8.91 11.53,13.4 2.8,3.29 5.61,6.56 8.37,9.9 2.21,2.69 4.39,5.38 6.56,8.08 5.52,6.89 11.01,13.81 16.34,20.91 l 1.09,1.43 c 2.54,3.39 4.99,6.81 7.47,10.22 2.01,2.77 4.04,5.51 6.01,8.31 0.91,1.28 1.78,2.57 2.68,3.86 3.36,4.81 6.7,9.65 9.97,14.55 32.44,48.64 59.01,99.48 79.94,151.67 0.45,1.13 0.91,2.26 1.36,3.4 6.29,15.9 12.03,31.94 17.28,48.07 0.97,2.99 1.91,5.98 2.85,8.97 1.49,4.78 2.92,9.57 4.32,14.36 1.02,3.48 2.07,6.95 3.04,10.44 1.85,6.67 3.61,13.35 5.29,20.04 1.2,4.79 2.32,9.6 3.43,14.4 0.62,2.67 1.24,5.35 1.83,8.03 1.15,5.2 2.27,10.41 3.32,15.62 0.27,1.32 0.51,2.65 0.77,3.97 2.34,11.96 4.44,23.95 6.24,35.96 l 0.05,0.31 c 0.92,6.12 1.76,12.26 2.54,18.39 0.13,1.03 0.25,2.06 0.38,3.1 2.27,18.48 3.92,37.01 4.94,55.56 0.07,1.09 0.13,2.19 0.19,3.29 0.31,5.95 0.55,11.91 0.73,17.87 0.03,1.06 0.04,2.12 0.07,3.18 0.29,11.16 0.34,22.32 0.18,33.47 -0.02,1.5 -0.02,3 -0.05,4.49 -0.1,4.95 -0.27,9.9 -0.46,14.84 -0.12,3.16 -0.26,6.32 -0.41,9.48 -0.22,4.44 -0.45,8.88 -0.73,13.31 -0.46,6.81 -0.97,13.61 -1.58,20.41 -0.28,3.11 -0.63,6.23 -0.95,9.34 -0.55,5.43 -1.14,10.86 -1.8,16.28 -0.34,2.8 -0.7,5.6 -1.06,8.4 -0.91,6.85 -1.89,13.7 -2.96,20.52 -0.17,1.07 -0.32,2.14 -0.49,3.2" /><path
         id="path48"
         style="fill:#2a9540;fill-opacity:1;fill-rule:nonzero;stroke:none"
         d="m 4983.01,3660.25 c 5.98,-0.06 11.97,-0.04 17.96,0.04 l 1.78,0.04 c 5.43,0.08 10.85,0.23 16.28,0.43 1.28,0.05 2.55,0.11 3.82,0.17 4.74,0.2 9.46,0.44 14.2,0.73 l 0.88,0.06 c -146.28,55.31 -384.27,172.23 -521.25,382.11 -1.91,2.31 -3.75,4.7 -5.63,7.04 -1.43,1.78 -2.88,3.56 -4.29,5.37 -2.88,3.65 -5.71,7.35 -8.51,11.08 -1.15,1.54 -2.3,3.09 -3.44,4.64 -2.92,3.98 -5.8,7.98 -8.64,12.04 -0.91,1.3 -1.8,2.62 -2.71,3.94 -2.96,4.31 -5.89,8.64 -8.75,13.04 -0.61,0.93 -1.19,1.87 -1.79,2.8 -10.62,16.54 -20.6,33.66 -29.73,51.45 -6.47,12.59 -12.58,25.46 -18.25,38.66 -82.87,192.9 -59.24,404.76 44.65,569.99 35.16,-49.92 80.81,-103.59 139.98,-157.17 71.79,-65.01 138.31,-115.45 194.48,-164.08 141.05,-132.67 169.03,-264.53 171.83,-338.55 -0.26,-19.08 -1.44,-39.17 -3.7,-60.53 0,0 15.5,21.79 30.22,61.15 92.61,229.09 -59.47,413.85 -59.47,413.85 h -0.01 c -7.91,11.65 -16.26,23.42 -25.09,35.32 -89.53,120.66 -221.33,252.71 -298.57,372.98 -10.4,16.18 -19.77,32.14 -27.94,47.84 -19.34,37.12 -31.83,72.74 -34.35,106.09 -32.28,-21.61 -62.48,-45.31 -90.5,-70.82 l -0.58,-0.51 c -2.87,-2.62 -5.68,-5.3 -8.5,-7.95 -2.11,-1.99 -4.25,-3.95 -6.33,-5.96 -1.73,-1.67 -3.42,-3.37 -5.14,-5.05 -3.13,-3.07 -6.26,-6.13 -9.33,-9.25 -0.99,-1.01 -1.96,-2.04 -2.96,-3.06 -3.74,-3.84 -7.46,-7.7 -11.12,-11.61 l -1.42,-1.54 c -4.14,-4.47 -8.25,-8.96 -12.28,-13.51 l -0.23,-0.27 c -8.75,-9.87 -17.22,-19.95 -25.42,-30.23 -43.11,-54.02 -78.63,-113.39 -105.86,-176.28 l -0.38,-0.9 c -3.15,-7.3 -6.17,-14.64 -9.09,-22.03 l -0.74,-1.85 c -2.98,-7.58 -5.84,-15.21 -8.57,-22.88 -0.35,-0.95 -0.66,-1.91 -1,-2.86 -2.15,-6.12 -4.22,-12.28 -6.23,-18.45 -0.81,-2.52 -1.62,-5.05 -2.41,-7.58 -1.53,-4.89 -3,-9.8 -4.44,-14.72 -0.82,-2.82 -1.67,-5.64 -2.46,-8.47 -1.73,-6.17 -3.36,-12.36 -4.93,-18.58 -1.02,-4.04 -1.99,-8.1 -2.94,-12.16 -0.68,-2.89 -1.35,-5.79 -2.01,-8.69 -1.01,-4.53 -2.01,-9.07 -2.95,-13.62 -0.28,-1.38 -0.53,-2.76 -0.81,-4.14 -2.04,-10.27 -3.89,-20.58 -5.53,-30.93 -0.15,-0.99 -0.32,-1.97 -0.48,-2.95 -0.85,-5.54 -1.64,-11.08 -2.37,-16.64 -0.13,-1.02 -0.26,-2.04 -0.39,-3.06 -2.21,-17.3 -3.85,-34.7 -4.89,-52.15 -0.06,-0.98 -0.12,-1.95 -0.18,-2.93 -0.32,-5.8 -0.59,-11.6 -0.79,-17.41 l -0.01,-0.29 c -0.38,-11.41 -0.48,-22.84 -0.35,-34.27 0.01,-1.27 0.01,-2.53 0.03,-3.8 0.08,-4.99 0.23,-9.99 0.4,-14.99 0.09,-2.58 0.21,-5.15 0.33,-7.73 0.2,-4.63 0.41,-9.25 0.71,-13.88 0.41,-6.46 0.9,-12.93 1.48,-19.4 0.3,-3.39 0.67,-6.78 1.01,-10.16 0.49,-4.67 0.99,-9.33 1.55,-14 0.36,-2.92 0.72,-5.85 1.11,-8.77 2.09,-15.79 4.66,-31.57 7.77,-47.33 0.22,-1.13 0.45,-2.25 0.67,-3.37 10.44,-51.76 26.31,-103.23 47.98,-153.67 2.19,-5.09 4.45,-10.13 6.74,-15.14 0.61,-1.34 1.19,-2.69 1.81,-4.02 1.35,-2.93 2.76,-5.8 4.13,-8.7 1.71,-3.57 3.4,-7.15 5.17,-10.71 l 0.76,-1.5 c 3.72,-7.47 7.6,-14.8 11.53,-22.1 1.54,-2.86 3.09,-5.72 4.68,-8.57 1.97,-3.56 4.02,-7.06 6.04,-10.58 2.77,-4.8 5.51,-9.62 8.37,-14.33 l 0.35,-0.57 c 8.19,-13.52 16.74,-26.68 25.62,-39.52 l 1.01,-1.5 c 3.61,-5.19 7.31,-10.28 11.02,-15.35 1.55,-2.12 3.08,-4.25 4.65,-6.34 3.4,-4.54 6.84,-9.02 10.32,-13.46 2.08,-2.65 4.17,-5.29 6.28,-7.91 3.21,-4 6.44,-7.98 9.72,-11.91 2.74,-3.26 5.52,-6.48 8.31,-9.69 2.82,-3.26 5.61,-6.54 8.48,-9.74 5.74,-6.41 11.54,-12.75 17.48,-18.94 l 2.06,-2.13 c 3.51,-3.64 7.04,-7.24 10.61,-10.8 1.47,-1.46 2.94,-2.89 4.41,-4.33 2.83,-2.78 5.67,-5.54 8.54,-8.27 2.2,-2.1 4.43,-4.17 6.67,-6.25 2.16,-2.01 4.33,-4.02 6.52,-6 2.93,-2.66 5.88,-5.28 8.84,-7.89 1.55,-1.36 3.09,-2.72 4.64,-4.07 3.59,-3.1 7.2,-6.17 10.84,-9.2 0.98,-0.81 1.96,-1.64 2.94,-2.45 4.19,-3.45 8.41,-6.87 12.67,-10.23 l 1.39,-1.11 c 4.71,-3.7 9.45,-7.35 14.24,-10.94 l 0.17,-0.13 c 39.93,-29.92 82.53,-55.82 127.13,-77.45 l 0.37,-0.18 c 5.25,-2.54 10.53,-5.01 15.83,-7.44 l 1.61,-0.73 c 4.86,-2.21 9.75,-4.36 14.66,-6.47 1.02,-0.43 2.05,-0.88 3.07,-1.31 4.41,-1.87 8.84,-3.69 13.28,-5.48 1.57,-0.63 3.14,-1.27 4.72,-1.89 3.9,-1.54 7.81,-3.04 11.73,-4.52 2.17,-0.81 4.33,-1.62 6.49,-2.42 3.35,-1.23 6.71,-2.42 10.08,-3.6 2.77,-0.98 5.55,-1.94 8.33,-2.88 2.78,-0.94 5.57,-1.86 8.36,-2.77 3.4,-1.11 6.79,-2.2 10.2,-3.26 2.21,-0.68 4.41,-1.35 6.63,-2.02 4.01,-1.2 8.03,-2.39 12.06,-3.53 1.63,-0.46 3.27,-0.92 4.9,-1.37 4.62,-1.27 9.24,-2.51 13.88,-3.7 1.08,-0.28 2.16,-0.55 3.24,-0.83 5.18,-1.3 10.37,-2.56 15.58,-3.76 l 1.71,-0.39 c 5.69,-1.3 11.39,-2.54 17.1,-3.71 l 0.4,-0.08 c 48.57,-9.9 98.16,-15.19 148.04,-15.66 h 0.21" /><path
         id="path50"
         style="fill:#7fcb2d;fill-opacity:1;fill-rule:nonzero;stroke:none"
         d="m 5444.43,4981.22 c -3,-15.9 -6.81,-31.47 -11.26,-46.74 l -0.73,-2.58 c -1.21,-4.07 -2.49,-8.1 -3.8,-12.12 -0.4,-1.23 -0.79,-2.46 -1.19,-3.68 -1.27,-3.8 -2.59,-7.57 -3.94,-11.32 -0.53,-1.47 -1.07,-2.93 -1.61,-4.39 -1.31,-3.53 -2.66,-7.06 -4.05,-10.55 -0.68,-1.73 -1.39,-3.44 -2.1,-5.15 -0.92,-2.25 -1.79,-4.52 -2.74,-6.75 -58.07,-194.23 -215.82,-339.56 -316.58,-416.04 l 0.7,0.15 c 3.74,0.87 7.46,1.77 11.18,2.7 1,0.25 2,0.49 3,0.75 4.25,1.09 8.49,2.22 12.72,3.4 l 1.39,0.38 c 4.67,1.31 9.32,2.67 13.95,4.09 l 0.16,0.05 c 38.58,11.81 75.82,27.3 111.23,46.13 l 0.29,0.15 c 4.16,2.22 8.3,4.49 12.41,6.8 l 1.24,0.7 c 3.76,2.13 7.5,4.3 11.22,6.5 l 2.32,1.38 c 3.33,1.99 6.63,4.01 9.91,6.06 1.17,0.73 2.33,1.45 3.49,2.18 2.86,1.82 5.71,3.66 8.55,5.52 1.56,1.02 3.12,2.05 4.67,3.08 2.4,1.61 4.79,3.23 7.17,4.87 1.95,1.35 3.91,2.7 5.85,4.07 1.94,1.37 3.87,2.75 5.79,4.14 2.35,1.69 4.68,3.39 6.99,5.11 1.5,1.12 2.99,2.24 4.48,3.37 2.71,2.04 5.4,4.11 8.07,6.2 1.08,0.84 2.15,1.69 3.22,2.54 3.04,2.41 6.06,4.84 9.04,7.3 l 2.08,1.73 c 3.33,2.76 6.63,5.55 9.89,8.38 l 1.08,0.94 c 3.56,3.09 7.08,6.23 10.57,9.4 l 0.24,0.22 c 29.63,27.02 56.73,56.89 80.83,89.26 l 0.1,0.14 c 2.89,3.88 5.73,7.8 8.54,11.76 l 0.82,1.18 c 2.54,3.58 5.03,7.2 7.48,10.84 l 1.72,2.58 c 2.12,3.19 4.22,6.39 6.29,9.62 0.9,1.4 1.78,2.81 2.67,4.22 1.7,2.7 3.39,5.42 5.05,8.15 1.24,2.04 2.46,4.1 3.67,6.15 1.26,2.12 2.51,4.25 3.75,6.38 1.59,2.78 3.16,5.57 4.72,8.37 0.81,1.46 1.62,2.91 2.42,4.38 1.95,3.58 3.87,7.18 5.75,10.81 l 1.11,2.12 c 3.18,6.17 6.23,12.42 9.21,18.71 1.49,3.14 2.91,6.32 4.35,9.5 1.42,3.13 2.84,6.26 4.21,9.42 1.64,3.8 3.24,7.63 4.82,11.47 1.03,2.52 2.04,5.04 3.05,7.58 1.67,4.24 3.32,8.5 4.91,12.8 0.73,1.99 1.43,3.99 2.15,5.99 1.71,4.79 3.42,9.59 5.02,14.44 l 0.45,1.39 c 3.93,12 7.54,24.17 10.79,36.54 l 0.14,0.52 c 1.13,4.31 2.16,8.68 3.21,13.04 0.75,3.19 1.54,6.37 2.25,9.59 0.58,2.57 1.12,5.15 1.66,7.72 1.38,6.57 2.71,13.14 3.87,19.79 l 0.25,1.34 c 0.56,3.16 1.04,6.33 1.55,9.49 0.4,2.56 0.83,5.12 1.2,7.69 0.18,1.18 0.32,2.36 0.49,3.54 0.62,4.41 1.22,8.84 1.75,13.29 5.22,44.09 5.72,87.66 1.93,130.2 -0.08,0.92 -0.16,1.85 -0.25,2.77 -1.21,12.94 -2.84,25.77 -4.84,38.5 -0.37,2.35 -0.76,4.71 -1.16,7.05 -0.63,3.75 -1.31,7.49 -2.01,11.22 -0.51,2.7 -0.99,5.41 -1.54,8.11 -1.03,5.15 -2.14,10.28 -3.31,15.39 -0.83,3.66 -1.73,7.29 -2.63,10.93 -0.5,2.02 -1,4.05 -1.52,6.07 -1.02,3.91 -2.05,7.82 -3.13,11.72 -0.28,0.98 -0.57,1.96 -0.85,2.95 -2.53,8.9 -5.23,17.74 -8.14,26.5 l -0.08,0.22 c -1.48,4.47 -3.03,8.9 -4.61,13.33 l -0.81,2.23 c -4.81,13.29 -10.08,26.41 -15.77,39.32 l -1,2.29 c -1.84,4.14 -3.73,8.26 -5.66,12.36 l -1.04,2.17 c -3.65,7.66 -7.45,15.23 -11.4,22.73 -0.53,1.01 -1.04,2.02 -1.58,3.02 -1.77,3.32 -3.59,6.61 -5.41,9.89 -1.18,2.1 -2.36,4.19 -3.55,6.28 -1.68,2.93 -3.35,5.86 -5.07,8.76 -2.65,4.46 -5.34,8.89 -8.09,13.28 -1.27,2.01 -2.57,4 -3.86,6 -2.24,3.48 -4.51,6.96 -6.82,10.4 -1.19,1.78 -2.4,3.55 -3.61,5.32 -2.97,4.33 -5.99,8.63 -9.07,12.88 l -1.43,2 c -3.88,5.32 -7.85,10.58 -11.9,15.77 l -0.99,1.27 c -3.97,5.06 -8,10.06 -12.11,14.99 l -0.51,0.61 c -35.56,42.54 -76.73,80.43 -122.57,112.43 -8.72,6.09 -17.61,11.96 -26.66,17.62 l -0.24,0.15 c -4.17,2.6 -8.39,5.15 -12.62,7.66 l -1.47,0.87 c -3.73,2.19 -7.5,4.33 -11.28,6.45 -1.01,0.56 -2,1.14 -3,1.69 -3.1,1.72 -6.23,3.37 -9.36,5.03 -1.71,0.91 -3.42,1.85 -5.14,2.74 -2.08,1.08 -4.19,2.11 -6.28,3.17 -2.8,1.41 -5.59,2.84 -8.42,4.21 l -0.57,0.27 c -27.59,13.35 -56.45,24.8 -86.45,34.15 5.7,-26.44 4.19,-56.94 -2.29,-90.16 -2.73,-14.06 -6.34,-28.59 -10.68,-43.53 -32.3,-111.01 -104.22,-243.69 -145.96,-357.83 -4.12,-11.26 -7.89,-22.31 -11.35,-33.16 h -0.02 c 0,0 -75.53,-178.22 48.9,-334.65 20.44,-27.15 37.48,-40.49 37.48,-40.49 -6.67,16.05 -12.19,31.36 -16.77,46.11 -14.83,58.04 -23.39,166.74 55.55,302.03 32.4,50.61 72.41,105.01 113.17,171.91 33.6,55.14 56.69,107.25 72.49,154.04 118.52,-104.31 185.48,-263.2 165.49,-431.85 -1.37,-11.54 -3.15,-22.92 -5.28,-34.17" /><path
         id="path52"
         style="fill:#2a9540;fill-opacity:1;fill-rule:nonzero;stroke:none"
         d="m 5129.04,3009.01 c -853.62,0 -1545.63,692 -1545.63,1545.63 0,853.63 692.01,1545.63 1545.63,1545.63 501.46,0 947.06,-238.87 1229.45,-608.96 -294.85,418.95 -782.09,692.72 -1333.32,692.72 -899.89,0 -1629.39,-729.5 -1629.39,-1629.39 0,-899.88 729.5,-1629.39 1629.39,-1629.39 551.23,0 1038.47,273.78 1333.32,692.72 C 6076.1,3247.88 5630.5,3009.01 5129.04,3009.01" /><path
         id="path54"
         style="fill:#7fcb2d;fill-opacity:1;fill-rule:nonzero;stroke:none"
         d="m 5046.89,3165.9 c 766.98,0 1388.74,621.76 1388.74,1388.74 0,766.98 -621.76,1388.74 -1388.74,1388.74 -450.55,0 -850.93,-214.62 -1104.65,-547.14 264.93,376.41 702.7,622.4 1197.98,622.4 808.54,0 1464,-655.46 1464,-1464 0,-808.54 -655.46,-1463.99 -1464,-1463.99 -495.28,0 -933.05,245.98 -1197.98,622.4 253.72,-332.52 654.1,-547.15 1104.65,-547.15" /></g></g></svg>